<svg xmlns="http://www.w3.org/2000/svg" width="12.417" height="13.551" viewBox="0 0 12.417 13.551">
  <g id="Group_323" data-name="Group 323" transform="translate(-78.562 -39.062)">
    <g id="Group_324" data-name="Group 324" transform="translate(79.45 39.062)">
      <g id="Group_323-2" data-name="Group 323" transform="translate(0 0)">
        <path id="Path_1125" data-name="Path 1125" d="M145.185,46.054q-.574-.578-1.149-1.157l-1.821-1.832-.421-.424v1.013l1.15-1.143,1.821-1.809.418-.415a.719.719,0,0,0,0-1.014.721.721,0,0,0-.507-.209.755.755,0,0,0-.507.209l-1.15,1.143L141.2,42.224l-.418.415a.727.727,0,0,0,0,1.013q.574.578,1.149,1.157l1.821,1.832.421.424a.719.719,0,0,0,1.014,0,.721.721,0,0,0,.209-.507.751.751,0,0,0-.209-.5Z" transform="translate(-140.575 -39.062)"/>
      </g>
    </g>
    <g id="Group_326" data-name="Group 326" transform="translate(78.562 42.436)">
      <g id="Group_325" data-name="Group 325" transform="translate(0 0)">
        <path id="Path_1126" data-name="Path 1126" d="M80.174,276.028h2.088l1.736,0h1.4c.259,0,.521-.007.781.01.1.006.2.016.3.029l-.191-.026a4.39,4.39,0,0,1,1.1.3l-.17-.072a4.447,4.447,0,0,1,.981.572l-.145-.112a4.491,4.491,0,0,1,.8.8l-.112-.145a4.456,4.456,0,0,1,.572.981c-.024-.057-.049-.115-.072-.17a4.373,4.373,0,0,1,.3,1.1l-.026-.19a4.461,4.461,0,0,1,0,1.156l.026-.19a4.389,4.389,0,0,1-.3,1.1c.024-.057.049-.115.072-.17a4.447,4.447,0,0,1-.572.981l.112-.145a4.492,4.492,0,0,1-.8.8l.145-.112a4.457,4.457,0,0,1-.981.572l.17-.072a4.373,4.373,0,0,1-1.1.3l.191-.026a7.88,7.88,0,0,1-1.04.039H80.154c-.288,0-.574,0-.862,0h-.013a.746.746,0,0,0-.507.209.719.719,0,0,0,0,1.014.743.743,0,0,0,.507.209h6.615a5.36,5.36,0,0,0,1.079-.116,5.125,5.125,0,0,0,1.05-.357,4.442,4.442,0,0,0,.8-.466,5.341,5.341,0,0,0,.816-.718,5.247,5.247,0,0,0,1.1-1.9,5.087,5.087,0,0,0-.513-4.177,5.284,5.284,0,0,0-1.5-1.563,5.1,5.1,0,0,0-.97-.51,4.44,4.44,0,0,0-.927-.272,6.427,6.427,0,0,0-1.1-.092h-.822l-2.653,0-1.984,0h-.1a.745.745,0,0,0-.507.209.719.719,0,0,0,0,1.014.771.771,0,0,0,.507.2Z" transform="translate(-78.562 -274.6)"/>
      </g>
    </g>
  </g>
</svg>
