<svg xmlns="http://www.w3.org/2000/svg" width="37.834" height="37.834" viewBox="0 0 37.834 37.834">
  <g id="Group_1593" data-name="Group 1593" transform="translate(-62 -514)">
    <g id="Ellipse_8" data-name="Ellipse 8" transform="translate(62 514)" fill="none" stroke="#1a171e" stroke-width="1">
      <circle cx="18.917" cy="18.917" r="18.917" stroke="none"/>
      <circle cx="18.917" cy="18.917" r="18.417" fill="none"/>
    </g>
    <path id="Path_27" data-name="Path 27" d="M18548.105,483.434v13.083l8.3-6.978Z" transform="translate(-18469.492 42.982)" fill="#1a171e"/>
  </g>
</svg>
